module storage-client

go 1.17

require (
	github.com/go-redis/redis/v8 v8.11.4
	github.com/google/uuid v1.3.0
	google.golang.org/grpc v1.43.0
	google.golang.org/protobuf v1.27.1
)

require (
	github.com/cespare/xxhash/v2 v2.1.2 // indirect
	github.com/dgryski/go-rendezvous v0.0.0-20200823014737-9f7001d12a5f // indirect
	github.com/fsnotify/fsnotify v1.5.1 // indirect
	github.com/golang/protobuf v1.5.2 // indirect
	github.com/hashicorp/hcl v1.0.0 // indirect
	github.com/kr/pretty v0.2.0 // indirect
	github.com/magiconair/properties v1.8.5 // indirect
	github.com/mitchellh/mapstructure v1.4.3 // indirect
	github.com/pelletier/go-toml v1.9.4 // indirect
	github.com/spf13/afero v1.6.0 // indirect
	github.com/spf13/cast v1.4.1 // indirect
	github.com/spf13/jwalterweatherman v1.1.0 // indirect
	github.com/spf13/pflag v1.0.5 // indirect
	github.com/subosito/gotenv v1.2.0 // indirect
	golang.org/x/net v0.0.0-20210813160813-60bc85c4be6d // indirect
	golang.org/x/sys v0.0.0-20211210111614-af8b64212486 // indirect
	golang.org/x/text v0.3.7 // indirect
	google.golang.org/genproto v0.0.0-20211208223120-3a66f561d7aa // indirect
	gopkg.in/check.v1 v1.0.0-20190902080502-41f04d3bba15 // indirect
	gopkg.in/ini.v1 v1.66.2 // indirect
	gopkg.in/yaml.v2 v2.4.0 // indirect
)

require (
	github.com/onsi/ginkgo v1.16.5 // indirect
	github.com/onsi/gomega v1.17.0 // indirect
	github.com/spf13/viper v1.10.1
)
